"TestCaseName"	"tst_TC01_RetailerCustomerDiscount_25percent-1"	"tst_TC02_RetailerCustomerDiscount-Null-1"	"tst_TC03_ConsumerCustomerDiscount_Null-1"	"tst_TC09-LoyalityDiscountNull-1"	"tst_TC_11_LoyalityDiscount5percent-1"	"tst_TC_013_Loyalty Discount of 10percent-1"	"tst_TC_013_Loyalty Discount of 10percent-2"	"tst_TC15_LoyalityDiscount15percent-1"	"tst_TC_017_LoyalityDiscount20percent-1"	"tst_TC_19_Perordervolume_nulldiscount-1"	"tst_TC_21_Perordervolume_5Percentdiscount-2"	"tst_TC_21_Perordervolume_5Percentdiscount-1"	"tst_TC_23_Perordervolume_10Percentdiscount-1"	"tst_TC_23_Perordervolume_10Percentdiscount-2"	"tst_TC_25_PerOrderVolume_15Percent-1"	"tst_TC27_PerOrderVolumeDiscount_20percent-3"	"tst_TC_30_VisonSourceDiscount_20percent-1"	"tst_TC_33_PatientDiscount_15percent-1"	"tst_TC_35_VeterinaryCustomer_DiscountNull-1"	"tst_TC_37_VeterinaryCustomerDiscount_10percent-1"	"tst_TC_39_VeterinaryCustomerDiscount_12.5percent-1"	"tst_TC_41_VeterinaryCustomerDiscount_15percent-1"	"tst_TC27_PerOrderVolumeDiscount_20percent-1"	"tst_TC27_PerOrderVolumeDiscount_20percent-2"	"tst_TC05_ConsumerCustomerDiscount_10percent-1"	"tst_TC07_ConsumerCustomerDiscount_15percent-1"	"tst_TC32_Tradeshowdiscount_20perceent-1"
"Product Name"	"RUS-01621"	"RUS-01665"	"PUS-01619"	"PUS-01616"	"PUS-01601"	"PUS-03183"	"PUS-01746"	"PUS-01601"	"PUS-14160"	"RUS-01748"	"RUS-01618"	"PUS-03091"	"RUS-01670"	"PUS-01746"	"PUS-50097"	"PUS-14160"	"PUS-04091"	"RUS-01500"	"PUS-03090"	"PUS-01619"	"PUS-03091"	"PUS-03090"	"PUS-01601"	"RUS-01500"	"PUS-01601"	"RUS-01600"	"RUS-02774"
"Product Quantity"	"7.000"	"9.000"	"2.000"	"3.000"	"4.000"	"2.000"	"5.000"	"11.000"	"11.000"	"11.000"	"15.000"	"22.000"	"40.000"	"10.000"	"20.000"	"10.000"	"4.000"	"2.000"	"20.000"	"45.000"	"30.000"	"98.000"	"15.000"	"15.000"	"4.000"	"7.000"	"12.000"
"ProductPrice"	"17.9775"	"17.9700"	"23.9500"	"17.9700"	"9.6615"	"9.1530"	"31.2930"	"8.6445"	"36.9360"	"29.9700"	"29.9700"	"14.9700"	"17.9700"	"34.7700"	"53.9700"	"46.1700"	"23.0160"	"50.9500"	"35.9700"	"14.3700"	"14.9700"	"35.9700"	"10.1700"	"35.9700"	"16.9500"	"16.9500"	"32.9700"
"ProductExtendedPrice"	"125.84"	"161.73"	"47.90"	"53.91"	"38.65"	"18.31"	"156.47"	"95.09"	"406.30"	"329.67"	"449.55"	"329.34"	"718.80"	"347.70"	"1079.40"	"461.70"	"92.06"	"119.90"	"719.40"	"646.65"	"449.10"	"3525.06"	"152.55"	"539.55"	"67.80"	"118.65"	"395.64"
"ProductCustPrice"	"17.9775"	"17.9700"	"23.9500"	"17.9700"	"9.6615"	"9.1530"	"31.2930"	"8.6445"	"36.9360"	"29.9700"	"29.9700"	"14.9700"	"17.9700"	"34.7700"	"53.9700"	"46.1700"	"23.0160"	"50.9500"	"35.9700"	"14.3700"	"14.9700"	"35.9700"	"10.1700"	"35.9700"	"16.9500"	"16.9500"	"32.9700"
"Reserved"	"7.000"	"9.000"	"2.000"	"3.000"	"4.000"	"2.000"	"5.000"	"11.000"	"11.000"	"11.000"	"15.000"	"22.000"	"40.000"	"10.000"	"20.000"	"10.000"	"4.000"	"2.000"	"20.000"	"45.000"	"30.000"	"98.000"	"15.000"	"15.000"	"4.000"	"7.000"	"12.000"
"SubTotal"	"125.84"	"161.73"	"52.90"	"53.91"	"38.65"	"174.78"	"174.78"	"95.09"	"406.30"	"329.67"	"778.89"	"778.89"	"1066.50"	"1,066.50"	"1,079.40"	"1153.80"	"92.06"	"119.90"	"719.40"	"646.65"	"449.10"	"3,525.06"	"1153.80"	"1153.80"	"67.80"	"118.65"	"395.64"
"Total"	"125.84"	"161.73"	"47.90"	"58.91"	"38.65"	"174.78"	"174.78"	"95.09"	"406.30"	"329.67"	"778.89"	"778.89"	"1066.50"	"1066.50"	"1079.40"	"1153.80"	"92.06"	"119.90"	"719.40"	"646.65"	"449.10"	"3525.06"	"1153.80"	"1153.80"	"67.80"	"118.65"	"395.64"
"Tax"	"0.00"	"0.00"	"4.19"	"0.00"	"0.00"	"0.00"	"0.00"	"0.00"	"0.00"	"0.00"	"0.00"	"0.00"	"0.00"	"0.00"	"0.00"	"0.00"	"0.00"	"0.00"	"0.00"	"0.00"	"0.00"	"0.00"	"0.00"	"0.00"	"0.00"	"0.00"	"0.00"
"Discount Percentage"	"25.000000"	"0.000000"	"0.000000"	"0.000000"	"5.000000"	"10.000000"	"10.000000"	"15.000000"	"20.000000"	"0.000000"	"5.000000"	"5.0000"	"10.000000"	"10.000000"	"15.00000"	"20.000000"	"20.000000"	"15.000000"	"0.000000"	"10.000000"	"12.500000"	"15.000000"	"20.000000"	"20.000000"	"10.000000"	"15.000000"	"20.000000"
"ListPrice"	"23.9700"	"17.9700"	"23.9500"	"17.9700"	"10.1700"	"10.1700"	"34.7700"	"10.1700"	"46.1700"	"29.9700"	"29.9700"	"14.9700"	"17.9700"	"34.7700"	"53.9700"	"46.1700"	"28.7700"	"59.9575"	"35.9700"	"14.3700"	"14.9700"	"35.9700"	"10.1700"	"35.9700"	"16.9500"	"16.9500"	"32.9700"
"DiscountTwoZeros"	"25.00"	"0.00"	"4.19"	"0.00"	"5.00"	"10.00"	"10.00"	"15.00"	"20.00"	"0.00"	"5.00"	"5.00"	"10.000000"	"10.000000"	"15.000000"	"0.00"	"20.00"	"15.00"	"0.00"	"10.00"	"12.50"	"15.00"	"20.00"	"20.00"	"10.00"	"15.00"	"20.00"
